/* XPM */
static char * tprgstatusbar_xpm[] = {
"23 23 6 1",
" 	c None",
".	c #FFFFFF",
"+	c #4B4B4B",
"@	c #C0C0C0",
"#	c #808080",
"$	c #0F1EE7",
"                       ",
"                       ",
"                       ",
"                       ",
"                       ",
"                       ",
"......................+",
"@@@@@@@@@@@@@@@@@@@@@@+",
"##########.@########.@+",
"$$@$$@$$@@.@#@@@@@@@.@+",
"$$@$$@$$@@.@#@@@@@@.#@+",
"$$@$$@$$@@.@#@@@@@.#@@+",
"$$@$$@$$@@.@#@@@@.#@.@+",
"$$@$$@$$@@.@#@@@.#@.#@+",
"$$@$$@$$@@.@#@@.#@.#@@+",
"...........@...#@.#@.@+",
"@@@@@@@@@@@@@@@@@@@@@@+",
"+++++++++++++++++++++++",
"                       ",
"                       ",
"                       ",
"                       ",
"                       "};
